Basic diet data analyses with R
…
##  [1] "X"        "svspp"    "epu"      "season"   "year"     "nstom"   
##  [7] "meanlen"  "varlen"   "numlen"   "minlen"   "maxlen"   "minstom" 
## [13] "maxstom"  "meanwgt"  "numwgt"   "minwgt"   "maxwgt"   "meansw"  
## [19] "num_tows" "variance" "cv"       "prey"     "totwt"    "relmsw"  
## [25] "ci"       "relci"    "relmsw2"  "meansw2"  "sciname"  "comname"

The names for each column are defined in the file defs.xlsx. We can read that in too, but it needs another package (readxl) loaded to read an excel table instead of a comma separated file.

library(readxl) #load the package that can read excel files

namedefs <- read_xlsx(here("data/defs.xlsx")) #read the file into R

namedefs #show me the contents

## # A tibble: 29 x 2
##    column  definition                                        
##    <chr>   <chr>                                             
##  1 svspp   survey species code                               
##  2 epu     ecological region (MAB, GB, GOM, SS)              
##  3 season  season (SPRING, FALL, aslo some WINTER and SUMMER)
##  4 year    year                                              
##  5 nstom   number of stomachs                                
##  6 meanlen mean length (cm)                                  
##  7 varlen  variance of meanlen                               
##  8 numlen  number of lengths                                 
##  9 minlen  minimum length (cm)                               
## 10 maxlen  maximum length (cm)                               
## #  with 19 more rows
…
##  Conflicts  tidyverse_conflicts() 
## x dplyr::filter() masks stats::filter()
## x dplyr::lag()    masks stats::lag()

# make a new dataset called ntows from dietdat2 that sums tows into a variable called anntows

ntows <- dietdat2 %>% # a pipe operator that strings the commands together
  group_by(comname, year, epu) %>% # for each predator/year/epu combo
  summarise(anntows = sum(num_tows, na.rm = TRUE)) # sum the tows

ntows

## # A tibble: 9,588 x 4
## # Groups:   comname, year [2,397]
##    comname          year epu   anntows
##    <fct>           <int> <fct>   <int>
##  1 ACADIAN REDFISH  1973 GB          0
##  2 ACADIAN REDFISH  1973 GOM       220
##  3 ACADIAN REDFISH  1973 MAB         0
##  4 ACADIAN REDFISH  1973 SS         30
##  5 ACADIAN REDFISH  1974 GB          0
##  6 ACADIAN REDFISH  1974 GOM       140
##  7 ACADIAN REDFISH  1974 MAB         0
##  8 ACADIAN REDFISH  1974 SS         40
##  9 ACADIAN REDFISH  1975 GB         10
## 10 ACADIAN REDFISH  1975 GOM        40
## #  with 9,578 more rows
…
