Getting started with R and diet data
…
##  Conflicts  tidyverse_conflicts() 
## x dplyr::filter() masks stats::filter()
## x dplyr::lag()    masks stats::lag()

# make a new dataset called ntows from dietdat1 that sums tows into a variable called anntows

ntows <- dietdat1 %>% # a pipe operator that strings the commands together
  group_by(comname, year, epu) %>% # for each predator/year/epu combo
  summarise(anntows = sum(num_tows, na.rm = TRUE)) # sum the tows

ntows

## # A tibble: 9,588 x 4
## # Groups:   comname, year [2,397]
##    comname          year epu   anntows
##    <fct>           <int> <fct>   <int>
##  1 ACADIAN REDFISH  1973 GB          0
##  2 ACADIAN REDFISH  1973 GOM        88
##  3 ACADIAN REDFISH  1973 MAB         0
##  4 ACADIAN REDFISH  1973 SS         12
##  5 ACADIAN REDFISH  1974 GB          0
##  6 ACADIAN REDFISH  1974 GOM        56
##  7 ACADIAN REDFISH  1974 MAB         0
##  8 ACADIAN REDFISH  1974 SS         16
##  9 ACADIAN REDFISH  1975 GB          4
## 10 ACADIAN REDFISH  1975 GOM        16
## #  with 9,578 more rows
…
